Analyzing differences in n-sets
…
## 
## $report$Notes
## $report$Notes$title
## [1] "\n---Notes---\n"
## 
## $report$Notes$summary
## [1] "CIs are at the 95 % level.\n This comparison was made on unpaired data.\n Equal variance was assumed.\n s in the row for the difference is the pooled standard deviation"
## 
## 
## 
## $type
## [1] "fromRaw"
## 
## $raw_data
## # A tibble: 66 x 2
##    iv       dv
##    <fct> <int>
##  1 P1        2
##  2 P31M      4
##  3 P1        7
##  4 P31M      7
##  5 P1        2
##  6 P31M      4
##  7 P1        2
##  8 P31M      2
##  9 P1        2
## 10 P31M      4
## #  with 56 more rows
## 
## $x
## [1] "Group.factor"
## 
## $y
## [1] "nsets_per"
## 
## attr(,"class")
…
